{
  "version": 2,
  "controller": {
    "id": "my_relay"
  },
  "workers": [
    {
      "type": "router",
      "options": {
          "pythonpath": [
              ".",
              ".."
          ]
      },
      "realms": [
        {
          "name": "timing",
          "roles": [
            {
              "name": "anonymous",
              "permissions": [
                {
                  "uri": "my-prefix",
                  "match": "prefix",
                  "allow": {
                    "call": true,
                    "register": false,
                    "publish": false,
                    "subscribe": true
                  },
                  "disclose": {
                    "caller": false,
                    "publisher": false
                  }
                }
              ]
            },
            {
              "name": "relay",
              "permissions": [
                {
                  "uri": "",
                  "match": "prefix",
                  "allow": {
                    "call": true,
                    "register": true,
                    "publish": true,
                    "subscribe": true
                  },
                  "disclose": {
                    "caller": false,
                    "publisher": false
                  }
                }
              ]
            }
          ]
        }
      ],
      "transports": [
        {
          "type": "websocket",
          "endpoint": {
            "type": "tcp",
            "port": 8080
          },
          "auth": {
            "anonymous": {
              "type": "static",
              "role": "anonymous"
            }
          }
        }
      ],
      "components": [
        {
          "type": "class",
          "classname": "livetiming.crossbar.relay.RelaySession",
          "realm": "timing",
          "role": "relay",
          "extra": {
            "id": "dev-relay",
            "event_prefix": "my_prefix",
            "remote_realm": "my_realm",
            "remote_router": "wss://my-remote-router/ws"
          }
        }
      ]
    }
  ]
}
